^C:\USERS\ADMN2\DOWNLOADS\POPITKA3\SPHINXBASE\SRC\SPHINX_JSGF2FSG\MAIN.C
C:\PROGRAM FILES (X86)\MICROSOFT VISUAL STUDIO 12.0\VC\BIN\1049\CLUI.DLL
C:\WINDOWS\GLOBALIZATION\SORTING\SORTDEFAULT.NLS
C:\WINDOWS\SYSTEM32\RSAENH.DLL
C:\WINDOWS\SYSTEM32\TZRES.DLL
C:\PROGRAM FILES (X86)\MICROSOFT VISUAL STUDIO 12.0\VC\INCLUDE\STRING.H
C:\PROGRAM FILES (X86)\MICROSOFT VISUAL STUDIO 12.0\VC\INCLUDE\CRTDEFS.H
C:\PROGRAM FILES (X86)\MICROSOFT VISUAL STUDIO 12.0\VC\INCLUDE\SAL.H
C:\PROGRAM FILES (X86)\MICROSOFT VISUAL STUDIO 12.0\VC\INCLUDE\CONCURRENCYSAL.H
C:\PROGRAM FILES (X86)\MICROSOFT VISUAL STUDIO 12.0\VC\INCLUDE\VADEFS.H
C:\USERS\ADMN2\DOWNLOADS\POPITKA3\SPHINXBASE\INCLUDE\SPHINXBASE\HASH_TABLE.H
C:\USERS\ADMN2\DOWNLOADS\POPITKA3\SPHINXBASE\INCLUDE\SPHINXBASE\SPHINXBASE_EXPORT.H
C:\USERS\ADMN2\DOWNLOADS\POPITKA3\SPHINXBASE\INCLUDE\SPHINXBASE\PRIM_TYPE.H
C:\USERS\ADMN2\DOWNLOADS\POPITKA3\SPHINXBASE\INCLUDE\SPHINX_CONFIG.H
C:\USERS\ADMN2\DOWNLOADS\POPITKA3\SPHINXBASE\INCLUDE\SPHINXBASE\GLIST.H
C:\PROGRAM FILES (X86)\MICROSOFT VISUAL STUDIO 12.0\VC\INCLUDE\STDLIB.H
C:\PROGRAM FILES (X86)\MICROSOFT VISUAL STUDIO 12.0\VC\INCLUDE\LIMITS.H
C:\USERS\ADMN2\DOWNLOADS\POPITKA3\SPHINXBASE\INCLUDE\SPHINXBASE\FSG_MODEL.H
C:\PROGRAM FILES (X86)\MICROSOFT VISUAL STUDIO 12.0\VC\INCLUDE\STDIO.H
C:\PROGRAM FILES (X86)\MICROSOFT VISUAL STUDIO 12.0\VC\INCLUDE\SWPRINTF.INL
C:\USERS\ADMN2\DOWNLOADS\POPITKA3\SPHINXBASE\INCLUDE\SPHINXBASE\LOGMATH.H
C:\USERS\ADMN2\DOWNLOADS\POPITKA3\SPHINXBASE\INCLUDE\SPHINXBASE\CMD_LN.H
C:\PROGRAM FILES (X86)\MICROSOFT VISUAL STUDIO 12.0\VC\INCLUDE\STDARG.H
C:\USERS\ADMN2\DOWNLOADS\POPITKA3\SPHINXBASE\INCLUDE\SPHINXBASE\BITVEC.H
C:\USERS\ADMN2\DOWNLOADS\POPITKA3\SPHINXBASE\INCLUDE\SPHINXBASE\CKD_ALLOC.H
C:\PROGRAM FILES (X86)\MICROSOFT VISUAL STUDIO 12.0\VC\INCLUDE\SETJMP.H
C:\USERS\ADMN2\DOWNLOADS\POPITKA3\SPHINXBASE\INCLUDE\SPHINXBASE\LISTELEM_ALLOC.H
C:\USERS\ADMN2\DOWNLOADS\POPITKA3\SPHINXBASE\INCLUDE\SPHINXBASE\JSGF.H
C:\USERS\ADMN2\DOWNLOADS\POPITKA3\SPHINXBASE\INCLUDE\SPHINXBASE\ERR.H
C:\PROGRAM FILES (X86)\MICROSOFT VISUAL STUDIO 12.0\VC\INCLUDE\ERRNO.H
C:\USERS\ADMN2\DOWNLOADS\POPITKA3\SPHINXBASE\INCLUDE\SPHINXBASE\STRFUNCS.H
C:\PROGRAM FILES (X86)\MICROSOFT VISUAL STUDIO 12.0\VC\BIN\1049\MSPFT120UI.DLL
C:\WINDOWS\SYSTEM32\MSXML6R.DLL
C:\PROGRAM FILES (X86)\MICROSOFT VISUAL STUDIO 12.0\VC\BIN\MSPFT120.DLL
