^C:\USERS\ADMN2\DOWNLOADS\POPITKA3\SPHINXBASE\SRC\SPHINX_CEPVIEW\MAIN_CEPVIEW.C
C:\PROGRAM FILES (X86)\MICROSOFT VISUAL STUDIO 12.0\VC\BIN\1049\CLUI.DLL
C:\WINDOWS\GLOBALIZATION\SORTING\SORTDEFAULT.NLS
C:\WINDOWS\SYSTEM32\RSAENH.DLL
C:\WINDOWS\SYSTEM32\TZRES.DLL
C:\PROGRAM FILES (X86)\MICROSOFT VISUAL STUDIO 12.0\VC\INCLUDE\STDIO.H
C:\PROGRAM FILES (X86)\MICROSOFT VISUAL STUDIO 12.0\VC\INCLUDE\CRTDEFS.H
C:\PROGRAM FILES (X86)\MICROSOFT VISUAL STUDIO 12.0\VC\INCLUDE\SAL.H
C:\PROGRAM FILES (X86)\MICROSOFT VISUAL STUDIO 12.0\VC\INCLUDE\CONCURRENCYSAL.H
C:\PROGRAM FILES (X86)\MICROSOFT VISUAL STUDIO 12.0\VC\INCLUDE\VADEFS.H
C:\PROGRAM FILES (X86)\MICROSOFT VISUAL STUDIO 12.0\VC\INCLUDE\SWPRINTF.INL
C:\PROGRAM FILES (X86)\MICROSOFT VISUAL STUDIO 12.0\VC\INCLUDE\STDLIB.H
C:\PROGRAM FILES (X86)\MICROSOFT VISUAL STUDIO 12.0\VC\INCLUDE\LIMITS.H
C:\PROGRAM FILES (X86)\MICROSOFT VISUAL STUDIO 12.0\VC\INCLUDE\STRING.H
C:\USERS\ADMN2\DOWNLOADS\POPITKA3\SPHINXBASE\INCLUDE\WIN32\CONFIG.H
C:\USERS\ADMN2\DOWNLOADS\POPITKA3\SPHINXBASE\INCLUDE\SPHINXBASE\STRFUNCS.H
C:\PROGRAM FILES (X86)\MICROSOFT VISUAL STUDIO 12.0\VC\INCLUDE\STDARG.H
C:\USERS\ADMN2\DOWNLOADS\POPITKA3\SPHINXBASE\INCLUDE\SPHINXBASE\SPHINXBASE_EXPORT.H
C:\USERS\ADMN2\DOWNLOADS\POPITKA3\SPHINXBASE\INCLUDE\SPHINXBASE\PRIM_TYPE.H
C:\USERS\ADMN2\DOWNLOADS\POPITKA3\SPHINXBASE\INCLUDE\WIN32\SPHINX_CONFIG.H
C:\USERS\ADMN2\DOWNLOADS\POPITKA3\SPHINXBASE\INCLUDE\SPHINXBASE\CMD_LN.H
C:\USERS\ADMN2\DOWNLOADS\POPITKA3\SPHINXBASE\INCLUDE\SPHINXBASE\CKD_ALLOC.H
C:\PROGRAM FILES (X86)\MICROSOFT VISUAL STUDIO 12.0\VC\INCLUDE\SETJMP.H
C:\USERS\ADMN2\DOWNLOADS\POPITKA3\SPHINXBASE\INCLUDE\SPHINXBASE\ERR.H
C:\PROGRAM FILES (X86)\MICROSOFT VISUAL STUDIO 12.0\VC\INCLUDE\ERRNO.H
C:\USERS\ADMN2\DOWNLOADS\POPITKA3\SPHINXBASE\INCLUDE\SPHINXBASE\BIO.H
C:\USERS\ADMN2\DOWNLOADS\POPITKA3\SPHINXBASE\INCLUDE\SPHINXBASE\BYTEORDER.H
C:\USERS\ADMN2\DOWNLOADS\POPITKA3\SPHINXBASE\INCLUDE\SPHINXBASE\PIO.H
C:\PROGRAM FILES (X86)\MICROSOFT VISUAL STUDIO 12.0\VC\INCLUDE\SYS\STAT.H
C:\PROGRAM FILES (X86)\MICROSOFT VISUAL STUDIO 12.0\VC\INCLUDE\SYS\TYPES.H
C:\PROGRAM FILES (X86)\MICROSOFT VISUAL STUDIO 12.0\VC\INCLUDE\SYS\STAT.INL
C:\PROGRAM FILES (X86)\MICROSOFT VISUAL STUDIO 12.0\VC\BIN\1049\MSPFT120UI.DLL
C:\WINDOWS\SYSTEM32\MSXML6R.DLL
C:\PROGRAM FILES (X86)\MICROSOFT VISUAL STUDIO 12.0\VC\BIN\MSPFT120.DLL
