^C:\USERS\ADMN2\DOWNLOADS\POPITKA3\SPHINXBASE\SRC\SPHINX_CEPVIEW\MAIN_CEPVIEW.C
C:\USERS\ADMN2\DOWNLOADS\POPITKA3\SPHINXBASE\WIN32\SPHINX_CEPVIEW\DEBUG\WIN32\VC120.PDB
C:\USERS\ADMN2\DOWNLOADS\POPITKA3\SPHINXBASE\WIN32\SPHINX_CEPVIEW\DEBUG\WIN32\VC120.IDB
C:\USERS\ADMN2\DOWNLOADS\POPITKA3\SPHINXBASE\WIN32\SPHINX_CEPVIEW\DEBUG\WIN32\MAIN_CEPVIEW.NATIVECODEANALYSIS.XML
C:\USERS\ADMN2\DOWNLOADS\POPITKA3\SPHINXBASE\WIN32\SPHINX_CEPVIEW\DEBUG\WIN32\MAIN_CEPVIEW.OBJ
