^C:\USERS\ADMN2\DOWNLOADS\POPITKA3\SPHINXBASE\WIN32\SPHINXBASE\DEBUG\WIN32\AD_WIN32.OBJ|C:\USERS\ADMN2\DOWNLOADS\POPITKA3\SPHINXBASE\WIN32\SPHINXBASE\DEBUG\WIN32\AGC.OBJ|C:\USERS\ADMN2\DOWNLOADS\POPITKA3\SPHINXBASE\WIN32\SPHINXBASE\DEBUG\WIN32\BIO.OBJ|C:\USERS\ADMN2\DOWNLOADS\POPITKA3\SPHINXBASE\WIN32\SPHINXBASE\DEBUG\WIN32\BITARR.OBJ|C:\USERS\ADMN2\DOWNLOADS\POPITKA3\SPHINXBASE\WIN32\SPHINXBASE\DEBUG\WIN32\BITVEC.OBJ|C:\USERS\ADMN2\DOWNLOADS\POPITKA3\SPHINXBASE\WIN32\SPHINXBASE\DEBUG\WIN32\BLAS_LITE.OBJ|C:\USERS\ADMN2\DOWNLOADS\POPITKA3\SPHINXBASE\WIN32\SPHINXBASE\DEBUG\WIN32\CASE.OBJ|C:\USERS\ADMN2\DOWNLOADS\POPITKA3\SPHINXBASE\WIN32\SPHINXBASE\DEBUG\WIN32\CKD_ALLOC.OBJ|C:\USERS\ADMN2\DOWNLOADS\POPITKA3\SPHINXBASE\WIN32\SPHINXBASE\DEBUG\WIN32\CMD_LN.OBJ|C:\USERS\ADMN2\DOWNLOADS\POPITKA3\SPHINXBASE\WIN32\SPHINXBASE\DEBUG\WIN32\CMN.OBJ|C:\USERS\ADMN2\DOWNLOADS\POPITKA3\SPHINXBASE\WIN32\SPHINXBASE\DEBUG\WIN32\CMN_PRIOR.OBJ|C:\USERS\ADMN2\DOWNLOADS\POPITKA3\SPHINXBASE\WIN32\SPHINXBASE\DEBUG\WIN32\DTOA.OBJ|C:\USERS\ADMN2\DOWNLOADS\POPITKA3\SPHINXBASE\WIN32\SPHINXBASE\DEBUG\WIN32\ERR.OBJ|C:\USERS\ADMN2\DOWNLOADS\POPITKA3\SPHINXBASE\WIN32\SPHINXBASE\DEBUG\WIN32\F2C_LITE.OBJ|C:\USERS\ADMN2\DOWNLOADS\POPITKA3\SPHINXBASE\WIN32\SPHINXBASE\DEBUG\WIN32\FEAT.OBJ|C:\USERS\ADMN2\DOWNLOADS\POPITKA3\SPHINXBASE\WIN32\SPHINXBASE\DEBUG\WIN32\FE_INTERFACE.OBJ|C:\USERS\ADMN2\DOWNLOADS\POPITKA3\SPHINXBASE\WIN32\SPHINXBASE\DEBUG\WIN32\FE_NOISE.OBJ|C:\USERS\ADMN2\DOWNLOADS\POPITKA3\SPHINXBASE\WIN32\SPHINXBASE\DEBUG\WIN32\FE_PRESPCH_BUF.OBJ|C:\USERS\ADMN2\DOWNLOADS\POPITKA3\SPHINXBASE\WIN32\SPHINXBASE\DEBUG\WIN32\FE_SIGPROC.OBJ|C:\USERS\ADMN2\DOWNLOADS\POPITKA3\SPHINXBASE\WIN32\SPHINXBASE\DEBUG\WIN32\FE_WARP.OBJ|C:\USERS\ADMN2\DOWNLOADS\POPITKA3\SPHINXBASE\WIN32\SPHINXBASE\DEBUG\WIN32\FE_WARP_AFFINE.OBJ|C:\USERS\ADMN2\DOWNLOADS\POPITKA3\SPHINXBASE\WIN32\SPHINXBASE\DEBUG\WIN32\FE_WARP_INVERSE_LINEAR.OBJ|C:\USERS\ADMN2\DOWNLOADS\POPITKA3\SPHINXBASE\WIN32\SPHINXBASE\DEBUG\WIN32\FE_WARP_PIECEWISE_LINEAR.OBJ|C:\USERS\ADMN2\DOWNLOADS\POPITKA3\SPHINXBASE\WIN32\SPHINXBASE\DEBUG\WIN32\FILENAME.OBJ|C:\USERS\ADMN2\DOWNLOADS\POPITKA3\SPHINXBASE\WIN32\SPHINXBASE\DEBUG\WIN32\FIXLOG.OBJ|C:\USERS\ADMN2\DOWNLOADS\POPITKA3\SPHINXBASE\WIN32\SPHINXBASE\DEBUG\WIN32\FSG_MODEL.OBJ|C:\USERS\ADMN2\DOWNLOADS\POPITKA3\SPHINXBASE\WIN32\SPHINXBASE\DEBUG\WIN32\GENRAND.OBJ|C:\USERS\ADMN2\DOWNLOADS\POPITKA3\SPHINXBASE\WIN32\SPHINXBASE\DEBUG\WIN32\GLIST.OBJ|C:\USERS\ADMN2\DOWNLOADS\POPITKA3\SPHINXBASE\WIN32\SPHINXBASE\DEBUG\WIN32\HASH_TABLE.OBJ|C:\USERS\ADMN2\DOWNLOADS\POPITKA3\SPHINXBASE\WIN32\SPHINXBASE\DEBUG\WIN32\HEAP.OBJ|C:\USERS\ADMN2\DOWNLOADS\POPITKA3\SPHINXBASE\WIN32\SPHINXBASE\DEBUG\WIN32\HUFF_CODE.OBJ|C:\USERS\ADMN2\DOWNLOADS\POPITKA3\SPHINXBASE\WIN32\SPHINXBASE\DEBUG\WIN32\JSGF.OBJ|C:\USERS\ADMN2\DOWNLOADS\POPITKA3\SPHINXBASE\WIN32\SPHINXBASE\DEBUG\WIN32\JSGF_PARSER.OBJ|C:\USERS\ADMN2\DOWNLOADS\POPITKA3\SPHINXBASE\WIN32\SPHINXBASE\DEBUG\WIN32\JSGF_SCANNER.OBJ|C:\USERS\ADMN2\DOWNLOADS\POPITKA3\SPHINXBASE\WIN32\SPHINXBASE\DEBUG\WIN32\LDA.OBJ|C:\USERS\ADMN2\DOWNLOADS\POPITKA3\SPHINXBASE\WIN32\SPHINXBASE\DEBUG\WIN32\LISTELEM_ALLOC.OBJ|C:\USERS\ADMN2\DOWNLOADS\POPITKA3\SPHINXBASE\WIN32\SPHINXBASE\DEBUG\WIN32\LM_TRIE.OBJ|C:\USERS\ADMN2\DOWNLOADS\POPITKA3\SPHINXBASE\WIN32\SPHINXBASE\DEBUG\WIN32\LM_TRIE_QUANT.OBJ|C:\USERS\ADMN2\DOWNLOADS\POPITKA3\SPHINXBASE\WIN32\SPHINXBASE\DEBUG\WIN32\LOGMATH.OBJ|C:\USERS\ADMN2\DOWNLOADS\POPITKA3\SPHINXBASE\WIN32\SPHINXBASE\DEBUG\WIN32\MATRIX.OBJ|C:\USERS\ADMN2\DOWNLOADS\POPITKA3\SPHINXBASE\WIN32\SPHINXBASE\DEBUG\WIN32\MMIO.OBJ|C:\USERS\ADMN2\DOWNLOADS\POPITKA3\SPHINXBASE\WIN32\SPHINXBASE\DEBUG\WIN32\NGRAMS_RAW.OBJ|C:\USERS\ADMN2\DOWNLOADS\POPITKA3\SPHINXBASE\WIN32\SPHINXBASE\DEBUG\WIN32\NGRAM_MODEL.OBJ|C:\USERS\ADMN2\DOWNLOADS\POPITKA3\SPHINXBASE\WIN32\SPHINXBASE\DEBUG\WIN32\NGRAM_MODEL_SET.OBJ|C:\USERS\ADMN2\DOWNLOADS\POPITKA3\SPHINXBASE\WIN32\SPHINXBASE\DEBUG\WIN32\NGRAM_MODEL_TRIE.OBJ|C:\USERS\ADMN2\DOWNLOADS\POPITKA3\SPHINXBASE\WIN32\SPHINXBASE\DEBUG\WIN32\PIO.OBJ|C:\USERS\ADMN2\DOWNLOADS\POPITKA3\SPHINXBASE\WIN32\SPHINXBASE\DEBUG\WIN32\PRIORITY_QUEUE.OBJ|C:\USERS\ADMN2\DOWNLOADS\POPITKA3\SPHINXBASE\WIN32\SPHINXBASE\DEBUG\WIN32\PROFILE.OBJ|C:\USERS\ADMN2\DOWNLOADS\POPITKA3\SPHINXBASE\WIN32\SPHINXBASE\DEBUG\WIN32\SBTHREAD.OBJ|C:\USERS\ADMN2\DOWNLOADS\POPITKA3\SPHINXBASE\WIN32\SPHINXBASE\DEBUG\WIN32\SLAMCH.OBJ|C:\USERS\ADMN2\DOWNLOADS\POPITKA3\SPHINXBASE\WIN32\SPHINXBASE\DEBUG\WIN32\SLAPACK_LITE.OBJ|C:\USERS\ADMN2\DOWNLOADS\POPITKA3\SPHINXBASE\WIN32\SPHINXBASE\DEBUG\WIN32\STRFUNCS.OBJ|C:\USERS\ADMN2\DOWNLOADS\POPITKA3\SPHINXBASE\WIN32\SPHINXBASE\DEBUG\WIN32\YIN.OBJ
C:\PROGRAM FILES (X86)\WINDOWS KITS\8.1\LIB\WINV6.3\UM\X86\WINMM.LIB
C:\PROGRAM FILES (X86)\WINDOWS KITS\8.1\LIB\WINV6.3\UM\X86\KERNEL32.LIB
C:\PROGRAM FILES (X86)\WINDOWS KITS\8.1\LIB\WINV6.3\UM\X86\USER32.LIB
C:\PROGRAM FILES (X86)\WINDOWS KITS\8.1\LIB\WINV6.3\UM\X86\GDI32.LIB
C:\PROGRAM FILES (X86)\WINDOWS KITS\8.1\LIB\WINV6.3\UM\X86\WINSPOOL.LIB
C:\PROGRAM FILES (X86)\WINDOWS KITS\8.1\LIB\WINV6.3\UM\X86\COMDLG32.LIB
C:\PROGRAM FILES (X86)\WINDOWS KITS\8.1\LIB\WINV6.3\UM\X86\ADVAPI32.LIB
C:\PROGRAM FILES (X86)\WINDOWS KITS\8.1\LIB\WINV6.3\UM\X86\SHELL32.LIB
C:\PROGRAM FILES (X86)\WINDOWS KITS\8.1\LIB\WINV6.3\UM\X86\OLE32.LIB
C:\PROGRAM FILES (X86)\WINDOWS KITS\8.1\LIB\WINV6.3\UM\X86\OLEAUT32.LIB
C:\PROGRAM FILES (X86)\WINDOWS KITS\8.1\LIB\WINV6.3\UM\X86\UUID.LIB
C:\PROGRAM FILES (X86)\WINDOWS KITS\8.1\LIB\WINV6.3\UM\X86\ODBC32.LIB
C:\PROGRAM FILES (X86)\WINDOWS KITS\8.1\LIB\WINV6.3\UM\X86\ODBCCP32.LIB
C:\USERS\ADMN2\DOWNLOADS\POPITKA3\SPHINXBASE\WIN32\SPHINXBASE\DEBUG\WIN32\AD_WIN32.OBJ
C:\USERS\ADMN2\DOWNLOADS\POPITKA3\SPHINXBASE\WIN32\SPHINXBASE\DEBUG\WIN32\AGC.OBJ
C:\USERS\ADMN2\DOWNLOADS\POPITKA3\SPHINXBASE\WIN32\SPHINXBASE\DEBUG\WIN32\CMN.OBJ
C:\USERS\ADMN2\DOWNLOADS\POPITKA3\SPHINXBASE\WIN32\SPHINXBASE\DEBUG\WIN32\CMN_PRIOR.OBJ
C:\USERS\ADMN2\DOWNLOADS\POPITKA3\SPHINXBASE\WIN32\SPHINXBASE\DEBUG\WIN32\FEAT.OBJ
C:\USERS\ADMN2\DOWNLOADS\POPITKA3\SPHINXBASE\WIN32\SPHINXBASE\DEBUG\WIN32\LDA.OBJ
C:\USERS\ADMN2\DOWNLOADS\POPITKA3\SPHINXBASE\WIN32\SPHINXBASE\DEBUG\WIN32\FE_INTERFACE.OBJ
C:\USERS\ADMN2\DOWNLOADS\POPITKA3\SPHINXBASE\WIN32\SPHINXBASE\DEBUG\WIN32\FE_NOISE.OBJ
C:\USERS\ADMN2\DOWNLOADS\POPITKA3\SPHINXBASE\WIN32\SPHINXBASE\DEBUG\WIN32\FE_PRESPCH_BUF.OBJ
C:\USERS\ADMN2\DOWNLOADS\POPITKA3\SPHINXBASE\WIN32\SPHINXBASE\DEBUG\WIN32\FE_SIGPROC.OBJ
C:\USERS\ADMN2\DOWNLOADS\POPITKA3\SPHINXBASE\WIN32\SPHINXBASE\DEBUG\WIN32\FE_WARP_AFFINE.OBJ
C:\USERS\ADMN2\DOWNLOADS\POPITKA3\SPHINXBASE\WIN32\SPHINXBASE\DEBUG\WIN32\FE_WARP.OBJ
C:\USERS\ADMN2\DOWNLOADS\POPITKA3\SPHINXBASE\WIN32\SPHINXBASE\DEBUG\WIN32\FE_WARP_INVERSE_LINEAR.OBJ
C:\USERS\ADMN2\DOWNLOADS\POPITKA3\SPHINXBASE\WIN32\SPHINXBASE\DEBUG\WIN32\FE_WARP_PIECEWISE_LINEAR.OBJ
C:\USERS\ADMN2\DOWNLOADS\POPITKA3\SPHINXBASE\WIN32\SPHINXBASE\DEBUG\WIN32\FIXLOG.OBJ
C:\USERS\ADMN2\DOWNLOADS\POPITKA3\SPHINXBASE\WIN32\SPHINXBASE\DEBUG\WIN32\YIN.OBJ
C:\USERS\ADMN2\DOWNLOADS\POPITKA3\SPHINXBASE\WIN32\SPHINXBASE\DEBUG\WIN32\FSG_MODEL.OBJ
C:\USERS\ADMN2\DOWNLOADS\POPITKA3\SPHINXBASE\WIN32\SPHINXBASE\DEBUG\WIN32\JSGF.OBJ
C:\USERS\ADMN2\DOWNLOADS\POPITKA3\SPHINXBASE\WIN32\SPHINXBASE\DEBUG\WIN32\JSGF_PARSER.OBJ
C:\USERS\ADMN2\DOWNLOADS\POPITKA3\SPHINXBASE\WIN32\SPHINXBASE\DEBUG\WIN32\JSGF_SCANNER.OBJ
C:\USERS\ADMN2\DOWNLOADS\POPITKA3\SPHINXBASE\WIN32\SPHINXBASE\DEBUG\WIN32\NGRAMS_RAW.OBJ
C:\USERS\ADMN2\DOWNLOADS\POPITKA3\SPHINXBASE\WIN32\SPHINXBASE\DEBUG\WIN32\LM_TRIE.OBJ
C:\USERS\ADMN2\DOWNLOADS\POPITKA3\SPHINXBASE\WIN32\SPHINXBASE\DEBUG\WIN32\LM_TRIE_QUANT.OBJ
C:\USERS\ADMN2\DOWNLOADS\POPITKA3\SPHINXBASE\WIN32\SPHINXBASE\DEBUG\WIN32\NGRAM_MODEL.OBJ
C:\USERS\ADMN2\DOWNLOADS\POPITKA3\SPHINXBASE\WIN32\SPHINXBASE\DEBUG\WIN32\NGRAM_MODEL_SET.OBJ
C:\USERS\ADMN2\DOWNLOADS\POPITKA3\SPHINXBASE\WIN32\SPHINXBASE\DEBUG\WIN32\NGRAM_MODEL_TRIE.OBJ
C:\USERS\ADMN2\DOWNLOADS\POPITKA3\SPHINXBASE\WIN32\SPHINXBASE\DEBUG\WIN32\BIO.OBJ
C:\USERS\ADMN2\DOWNLOADS\POPITKA3\SPHINXBASE\WIN32\SPHINXBASE\DEBUG\WIN32\BITARR.OBJ
C:\USERS\ADMN2\DOWNLOADS\POPITKA3\SPHINXBASE\WIN32\SPHINXBASE\DEBUG\WIN32\BITVEC.OBJ
C:\USERS\ADMN2\DOWNLOADS\POPITKA3\SPHINXBASE\WIN32\SPHINXBASE\DEBUG\WIN32\BLAS_LITE.OBJ
C:\USERS\ADMN2\DOWNLOADS\POPITKA3\SPHINXBASE\WIN32\SPHINXBASE\DEBUG\WIN32\CASE.OBJ
C:\USERS\ADMN2\DOWNLOADS\POPITKA3\SPHINXBASE\WIN32\SPHINXBASE\DEBUG\WIN32\CKD_ALLOC.OBJ
C:\USERS\ADMN2\DOWNLOADS\POPITKA3\SPHINXBASE\WIN32\SPHINXBASE\DEBUG\WIN32\CMD_LN.OBJ
C:\USERS\ADMN2\DOWNLOADS\POPITKA3\SPHINXBASE\WIN32\SPHINXBASE\DEBUG\WIN32\DTOA.OBJ
C:\USERS\ADMN2\DOWNLOADS\POPITKA3\SPHINXBASE\WIN32\SPHINXBASE\DEBUG\WIN32\ERR.OBJ
C:\USERS\ADMN2\DOWNLOADS\POPITKA3\SPHINXBASE\WIN32\SPHINXBASE\DEBUG\WIN32\F2C_LITE.OBJ
C:\USERS\ADMN2\DOWNLOADS\POPITKA3\SPHINXBASE\WIN32\SPHINXBASE\DEBUG\WIN32\FILENAME.OBJ
C:\USERS\ADMN2\DOWNLOADS\POPITKA3\SPHINXBASE\WIN32\SPHINXBASE\DEBUG\WIN32\GENRAND.OBJ
C:\USERS\ADMN2\DOWNLOADS\POPITKA3\SPHINXBASE\WIN32\SPHINXBASE\DEBUG\WIN32\GLIST.OBJ
C:\USERS\ADMN2\DOWNLOADS\POPITKA3\SPHINXBASE\WIN32\SPHINXBASE\DEBUG\WIN32\HASH_TABLE.OBJ
C:\USERS\ADMN2\DOWNLOADS\POPITKA3\SPHINXBASE\WIN32\SPHINXBASE\DEBUG\WIN32\HEAP.OBJ
C:\USERS\ADMN2\DOWNLOADS\POPITKA3\SPHINXBASE\WIN32\SPHINXBASE\DEBUG\WIN32\HUFF_CODE.OBJ
C:\USERS\ADMN2\DOWNLOADS\POPITKA3\SPHINXBASE\WIN32\SPHINXBASE\DEBUG\WIN32\LISTELEM_ALLOC.OBJ
C:\USERS\ADMN2\DOWNLOADS\POPITKA3\SPHINXBASE\WIN32\SPHINXBASE\DEBUG\WIN32\LOGMATH.OBJ
C:\USERS\ADMN2\DOWNLOADS\POPITKA3\SPHINXBASE\WIN32\SPHINXBASE\DEBUG\WIN32\MATRIX.OBJ
C:\USERS\ADMN2\DOWNLOADS\POPITKA3\SPHINXBASE\WIN32\SPHINXBASE\DEBUG\WIN32\MMIO.OBJ
C:\USERS\ADMN2\DOWNLOADS\POPITKA3\SPHINXBASE\WIN32\SPHINXBASE\DEBUG\WIN32\PIO.OBJ
C:\USERS\ADMN2\DOWNLOADS\POPITKA3\SPHINXBASE\WIN32\SPHINXBASE\DEBUG\WIN32\PRIORITY_QUEUE.OBJ
C:\USERS\ADMN2\DOWNLOADS\POPITKA3\SPHINXBASE\WIN32\SPHINXBASE\DEBUG\WIN32\PROFILE.OBJ
C:\USERS\ADMN2\DOWNLOADS\POPITKA3\SPHINXBASE\WIN32\SPHINXBASE\DEBUG\WIN32\SBTHREAD.OBJ
C:\USERS\ADMN2\DOWNLOADS\POPITKA3\SPHINXBASE\WIN32\SPHINXBASE\DEBUG\WIN32\SLAMCH.OBJ
C:\USERS\ADMN2\DOWNLOADS\POPITKA3\SPHINXBASE\WIN32\SPHINXBASE\DEBUG\WIN32\SLAPACK_LITE.OBJ
C:\USERS\ADMN2\DOWNLOADS\POPITKA3\SPHINXBASE\WIN32\SPHINXBASE\DEBUG\WIN32\STRFUNCS.OBJ
C:\WINDOWS\GLOBALIZATION\SORTING\SORTDEFAULT.NLS
C:\PROGRAM FILES (X86)\MICROSOFT VISUAL STUDIO 12.0\VC\LIB\MSVCRTD.LIB
C:\PROGRAM FILES (X86)\MICROSOFT VISUAL STUDIO 12.0\VC\LIB\OLDNAMES.LIB
C:\WINDOWS\SYSTEM32\TZRES.DLL
C:\PROGRAM FILES (X86)\MICROSOFT VISUAL STUDIO 12.0\VC\BIN\1049\LINKUI.DLL
C:\PROGRAM FILES (X86)\WINDOWS KITS\8.1\BIN\X86\RC.EXE
C:\PROGRAM FILES (X86)\MICROSOFT VISUAL STUDIO 12.0\VC\BIN\CVTRES.EXE
C:\WINDOWS\SYSTEM32\RSAENH.DLL
